TLS identifiaction
…
B cell / patch grouping

# patches per image
data.frame(colData(sce_prot)) %>%
  group_by(Description) %>%
  filter(bcell_patch != 0) %>%
  distinct(bcell_patch, .keep_all = T) %>%
  summarise(n=n()) %>%
  arrange(-n)

# A tibble: 43 x 2
   Description     n
   <chr>       <int>
 1 L8             16
 2 C9             14
 3 L7             13
 4 O10            11
 5 J9             10
 6 G1              9
 7 J2              9
 8 B10             8
 9 E3              8
10 F9              8
# … with 33 more rows
…
